{
  "files": {
    "main.css": "/static/css/main.7f164b9e.css",
    "main.js": "/static/js/main.52bf5556.js",
    "static/js/787.7099025d.chunk.js": "/static/js/787.7099025d.chunk.js",
    "static/media/fontello.eot?78161236": "/static/media/fontello.dccb7d87a24c76409e41.eot",
    "static/media/fontello.ttf?78161236": "/static/media/fontello.09f34e5db8eb4e8ec3cd.ttf",
    "static/media/fontello.woff?78161236": "/static/media/fontello.451c61758c960ccef805.woff",
    "static/media/fontello.woff2?78161236": "/static/media/fontello.f0a7eb080a028103d09e.woff2",
    "static/media/fontello.svg?78161236": "/static/media/fontello.ea74d514c6a43f5d3b65.svg",
    "index.html": "/index.html",
    "main.7f164b9e.css.map": "/static/css/main.7f164b9e.css.map",
    "main.52bf5556.js.map": "/static/js/main.52bf5556.js.map",
    "787.7099025d.chunk.js.map": "/static/js/787.7099025d.chunk.js.map"
  },
  "entrypoints": [
    "static/css/main.7f164b9e.css",
    "static/js/main.52bf5556.js"
  ]
}